\relax 
\newlabel{q2}{{1}{3}}
\@writefile{lol}{\contentsline {lstlisting}{\numberline {1}Code used for question 2.}{3}{}\protected@file@percent }
\newlabel{genp}{{2}{4}}
\@writefile{lol}{\contentsline {lstlisting}{\numberline {2}Code used for question 2 GENP.}{4}{}\protected@file@percent }
\newlabel{gepp}{{3}{4}}
\@writefile{lol}{\contentsline {lstlisting}{\numberline {3}Code used for question 2 GEPP.}{4}{}\protected@file@percent }
\newlabel{q3}{{4}{5}}
\@writefile{lol}{\contentsline {lstlisting}{\numberline {4}Code used for question 3.}{5}{}\protected@file@percent }
\newlabel{det}{{5}{5}}
\@writefile{lol}{\contentsline {lstlisting}{\numberline {5}Code used for question 3 determinant}{5}{}\protected@file@percent }
\gdef \@abspage@last{5}
