\relax 
\providecommand\hyper@newdestlabel[2]{}
\providecommand\HyperFirstAtBeginDocument{\AtBeginDocument}
\HyperFirstAtBeginDocument{\ifx\hyper@anchor\@undefined
\global\let\oldnewlabel\newlabel
\gdef\newlabel#1#2{\newlabelxx{#1}#2}
\gdef\newlabelxx#1#2#3#4#5#6{\oldnewlabel{#1}{{#2}{#3}}}
\AtEndDocument{\ifx\hyper@anchor\@undefined
\let\newlabel\oldnewlabel
\fi}
\fi}
\global\let\hyper@last\relax 
\gdef\HyperFirstAtBeginDocument#1{#1}
\providecommand\HyField@AuxAddToFields[1]{}
\providecommand\HyField@AuxAddToCoFields[2]{}
\citation{ARES}
\citation{f2006}
\citation{f2006}
\citation{Zygelman}
\citation{m2012}
\@writefile{toc}{\contentsline {section}{\numberline {1}Introduction}{1}{section.1}\protected@file@percent }
\@writefile{toc}{\contentsline {section}{\numberline {2}Background}{1}{section.2}\protected@file@percent }
\@writefile{toc}{\contentsline {subsection}{\numberline {2.1}ARES}{1}{subsection.2.1}\protected@file@percent }
\newlabel{dTb}{{2}{1}{ARES}{equation.2.2}{}}
\citation{fs2010}
\citation{m2012}
\citation{m2012}
\citation{hmf}
\citation{m2012}
\citation{m1956}
\citation{m1956}
\citation{nn}
\citation{nn}
\citation{nn}
\citation{NEAT}
\citation{NEAT}
\citation{NEAT}
\@writefile{toc}{\contentsline {subsection}{\numberline {2.2}RBFI}{2}{subsection.2.2}\protected@file@percent }
\newlabel{rbfi_def}{{8}{2}{RBFI}{equation.2.8}{}}
\@writefile{toc}{\contentsline {subsection}{\numberline {2.3}MLP}{2}{subsection.2.3}\protected@file@percent }
\citation{NEAT}
\citation{NEAT}
\citation{NEAT}
\citation{NEAT}
\citation{plank}
\citation{m2018}
\citation{ARES}
\@writefile{toc}{\contentsline {subsection}{\numberline {2.4}NEAT}{3}{subsection.2.4}\protected@file@percent }
\@writefile{lof}{\contentsline {figure}{\numberline {1}{\ignorespaces Diagram of offspring production from Stanley's paper \cite  {NEAT}. Parents are represented with a series of edges that have been added (with its innovation number at the top of each box). They are then ``lined up'' by increasing number to create an offspring with a non-problematic topology.}}{3}{figure.1}\protected@file@percent }
\newlabel{offspring}{{1}{3}{Diagram of offspring production from Stanley's paper \cite {NEAT}. Parents are represented with a series of edges that have been added (with its innovation number at the top of each box). They are then ``lined up'' by increasing number to create an offspring with a non-problematic topology}{figure.1}{}}
\@writefile{toc}{\contentsline {section}{\numberline {3}Method and Results}{3}{section.3}\protected@file@percent }
\@writefile{toc}{\contentsline {subsection}{\numberline {3.1}Data Preparation}{3}{subsection.3.1}\protected@file@percent }
\@writefile{lot}{\contentsline {table}{\numberline {1}{\ignorespaces List of the 5 parameters used with the minimum and maximum value of each used. 40 evenly spaced redshift points from 5 to 30 were selected for each curve made by ARES. The ARES parameters to produce these curves were selected by a uniform or log-uniform distribution (last column).}}{3}{table.1}\protected@file@percent }
\newlabel{params}{{1}{3}{List of the 5 parameters used with the minimum and maximum value of each used. 40 evenly spaced redshift points from 5 to 30 were selected for each curve made by ARES. The ARES parameters to produce these curves were selected by a uniform or log-uniform distribution (last column)}{table.1}{}}
\citation{rbfi-sp}
\citation{lbfgs}
\citation{mlp}
\citation{neat-py}
\bibcite{ARES}{1}
\bibcite{f2006}{2}
\bibcite{Zygelman}{3}
\bibcite{m2012}{4}
\bibcite{fs2010}{5}
\bibcite{hmf}{6}
\bibcite{m1956}{7}
\bibcite{nn}{8}
\bibcite{NEAT}{9}
\bibcite{plank}{10}
\bibcite{m2018}{11}
\bibcite{rbfi-sp}{12}
\bibcite{lbfgs}{13}
\bibcite{mlp}{14}
\bibcite{neat-py}{15}
\@writefile{toc}{\contentsline {subsection}{\numberline {3.2}Testing Methods}{4}{subsection.3.2}\protected@file@percent }
\@writefile{lot}{\contentsline {table}{\numberline {2}{\ignorespaces Error on the testing set ($\varepsilon $), Time taken to create the function (Training time), and average time taken to be evaluated for any single input. Note that for the given hardware (Intel\textsuperscript  \textregistered i9-10900 CPU), ARES takes no less than 5 seconds per input for evaluation.}}{4}{table.2}\protected@file@percent }
\newlabel{results}{{2}{4}{Error on the testing set ($\varepsilon $), Time taken to create the function (Training time), and average time taken to be evaluated for any single input. Note that for the given hardware (Intel\textsuperscript \textregistered i9-10900 CPU), ARES takes no less than 5 seconds per input for evaluation}{table.2}{}}
\@writefile{toc}{\contentsline {section}{\numberline {4}Discussion}{4}{section.4}\protected@file@percent }
\@writefile{lof}{\contentsline {figure}{\numberline {2}{\ignorespaces A sample plot of the emulators. RBFI and MLPs seem to be good fits but NEAT does not.}}{4}{figure.2}\protected@file@percent }
\newlabel{plots}{{2}{4}{A sample plot of the emulators. RBFI and MLPs seem to be good fits but NEAT does not}{figure.2}{}}
\@writefile{toc}{\contentsline {section}{\numberline {5}Conclusions}{4}{section.5}\protected@file@percent }
\gdef \@abspage@last{4}
