# Fdb version 3
["pdflatex"] 1662660366 "/home/justin/fall2022/PHYS479/proposal/proposal.tex" "proposal.pdf" "proposal" 1662660367
  "/home/justin/fall2022/PHYS479/proposal/proposal.tex" 1662660366 3018 ac9c1ca6d1e1729bb30f436626324ece ""
  "/usr/share/texmf-dist/fonts/enc/dvips/cm-super/cm-super-ts1.enc" 1650183167 2900 1537cc8184ad1792082cd229ecc269f4 ""
  "/usr/share/texmf-dist/fonts/map/fontname/texfonts.map" 1650183167 3524 cb3e574dea2d1052e39280babc910dc8 ""
  "/usr/share/texmf-dist/fonts/tfm/jknappen/ec/tcrm1000.tfm" 1650183167 1536 e07581a4bb3136ece9eeb4c3ffab8233 ""
  "/usr/share/texmf-dist/fonts/tfm/public/amsfonts/cmextra/cmex7.tfm" 1650183167 1004 54797486969f23fa377b128694d548df ""
  "/usr/share/texmf-dist/fonts/tfm/public/amsfonts/cmextra/cmex8.tfm" 1650183167 988 bdf658c3bfc2d96d3c8b02cfc1c94c20 ""
  "/usr/share/texmf-dist/fonts/tfm/public/amsfonts/symbols/msam10.tfm" 1650183167 916 f87d7c45f9c908e672703b83b72241a3 ""
  "/usr/share/texmf-dist/fonts/tfm/public/amsfonts/symbols/msam5.tfm" 1650183167 924 9904cf1d39e9767e7a3622f2a125a565 ""
  "/usr/share/texmf-dist/fonts/tfm/public/amsfonts/symbols/msam7.tfm" 1650183167 928 2dc8d444221b7a635bb58038579b861a ""
  "/usr/share/texmf-dist/fonts/tfm/public/amsfonts/symbols/msbm10.tfm" 1650183167 908 2921f8a10601f252058503cc6570e581 ""
  "/usr/share/texmf-dist/fonts/tfm/public/amsfonts/symbols/msbm5.tfm" 1650183167 940 75ac932a52f80982a9f8ea75d03a34cf ""
  "/usr/share/texmf-dist/fonts/tfm/public/amsfonts/symbols/msbm7.tfm" 1650183167 940 228d6584342e91276bf566bcf9716b83 ""
  "/usr/share/texmf-dist/fonts/tfm/public/cm/cmbx10.tfm" 1650183167 1328 c834bbb027764024c09d3d2bf908b5f0 ""
  "/usr/share/texmf-dist/fonts/tfm/public/cm/cmbx12.tfm" 1650183167 1324 c910af8c371558dc20f2d7822f66fe64 ""
  "/usr/share/texmf-dist/fonts/tfm/public/cm/cmex10.tfm" 1650183167 992 662f679a0b3d2d53c1b94050fdaa3f50 ""
  "/usr/share/texmf-dist/fonts/tfm/public/cm/cmmi12.tfm" 1650183167 1524 4414a8315f39513458b80dfc63bff03a ""
  "/usr/share/texmf-dist/fonts/tfm/public/cm/cmmi6.tfm" 1650183167 1512 f21f83efb36853c0b70002322c1ab3ad ""
  "/usr/share/texmf-dist/fonts/tfm/public/cm/cmmi8.tfm" 1650183167 1520 eccf95517727cb11801f4f1aee3a21b4 ""
  "/usr/share/texmf-dist/fonts/tfm/public/cm/cmr12.tfm" 1650183167 1288 655e228510b4c2a1abe905c368440826 ""
  "/usr/share/texmf-dist/fonts/tfm/public/cm/cmr17.tfm" 1650183167 1292 296a67155bdbfc32aa9c636f21e91433 ""
  "/usr/share/texmf-dist/fonts/tfm/public/cm/cmr6.tfm" 1650183167 1300 b62933e007d01cfd073f79b963c01526 ""
  "/usr/share/texmf-dist/fonts/tfm/public/cm/cmr8.tfm" 1650183167 1292 21c1c5bfeaebccffdb478fd231a0997d ""
  "/usr/share/texmf-dist/fonts/tfm/public/cm/cmsy10.tfm" 1650183167 1124 6c73e740cf17375f03eec0ee63599741 ""
  "/usr/share/texmf-dist/fonts/tfm/public/cm/cmsy6.tfm" 1650183167 1116 933a60c408fc0a863a92debe84b2d294 ""
  "/usr/share/texmf-dist/fonts/tfm/public/cm/cmsy8.tfm" 1650183167 1120 8b7d695260f3cff42e636090a8002094 ""
  "/usr/share/texmf-dist/fonts/type1/public/amsfonts/cm/cmbx10.pfb" 1650183167 34811 78b52f49e893bcba91bd7581cdc144c0 ""
  "/usr/share/texmf-dist/fonts/type1/public/amsfonts/cm/cmbx12.pfb" 1650183167 32080 340ef9bf63678554ee606688e7b5339d ""
  "/usr/share/texmf-dist/fonts/type1/public/amsfonts/cm/cmmi10.pfb" 1650183167 36299 5f9df58c2139e7edcf37c8fca4bd384d ""
  "/usr/share/texmf-dist/fonts/type1/public/amsfonts/cm/cmmi7.pfb" 1650183167 36281 c355509802a035cadc5f15869451dcee ""
  "/usr/share/texmf-dist/fonts/type1/public/amsfonts/cm/cmr10.pfb" 1650183167 35752 024fb6c41858982481f6968b5fc26508 ""
  "/usr/share/texmf-dist/fonts/type1/public/amsfonts/cm/cmr12.pfb" 1650183167 32722 d7379af29a190c3f453aba36302ff5a9 ""
  "/usr/share/texmf-dist/fonts/type1/public/amsfonts/cm/cmr17.pfb" 1650183167 32362 179c33bbf43f19adbb3825bb4e36e57a ""
  "/usr/share/texmf-dist/fonts/type1/public/cm-super/sfrm1000.pfb" 1650183167 138258 6525c253f16cededa14c7fd0da7f67b2 ""
  "/usr/share/texmf-dist/tex/context/base/mkii/supp-pdf.mkii" 1650183167 71627 94eb9990bed73c364d7f53f960cc8c5b ""
  "/usr/share/texmf-dist/tex/generic/atbegshi/atbegshi.sty" 1650183167 24708 5584a51a7101caf7e6bbf1fc27d8f7b1 ""
  "/usr/share/texmf-dist/tex/generic/bigintcalc/bigintcalc.sty" 1650183167 40635 c40361e206be584d448876bba8a64a3b ""
  "/usr/share/texmf-dist/tex/generic/bitset/bitset.sty" 1650183167 33961 6b5c75130e435b2bfdb9f480a09a39f9 ""
  "/usr/share/texmf-dist/tex/generic/etexcmds/etexcmds.sty" 1650183167 7734 b98cbb34c81f667027c1e3ebdbfce34b ""
  "/usr/share/texmf-dist/tex/generic/gettitlestring/gettitlestring.sty" 1650183167 8371 9d55b8bd010bc717624922fb3477d92e ""
  "/usr/share/texmf-dist/tex/generic/iftex/iftex.sty" 1650183167 7237 bdd120a32c8fdb4b433cf9ca2e7cd98a ""
  "/usr/share/texmf-dist/tex/generic/iftex/ifvtex.sty" 1650183167 1057 525c2192b5febbd8c1f662c9468335bb ""
  "/usr/share/texmf-dist/tex/generic/infwarerr/infwarerr.sty" 1650183167 8356 7bbb2c2373aa810be568c29e333da8ed ""
  "/usr/share/texmf-dist/tex/generic/intcalc/intcalc.sty" 1650183167 31769 002a487f55041f8e805cfbf6385ffd97 ""
  "/usr/share/texmf-dist/tex/generic/kvdefinekeys/kvdefinekeys.sty" 1650183167 5412 d5a2436094cd7be85769db90f29250a6 ""
  "/usr/share/texmf-dist/tex/generic/kvsetkeys/kvsetkeys.sty" 1650183167 13807 952b0226d4efca026f0e19dd266dcc22 ""
  "/usr/share/texmf-dist/tex/generic/ltxcmds/ltxcmds.sty" 1650183167 17859 4409f8f50cd365c68e684407e5350b1b ""
  "/usr/share/texmf-dist/tex/generic/pdfescape/pdfescape.sty" 1650183167 19007 15924f7228aca6c6d184b115f4baa231 ""
  "/usr/share/texmf-dist/tex/generic/pdftexcmds/pdftexcmds.sty" 1650183167 20089 80423eac55aa175305d35b49e04fe23b ""
  "/usr/share/texmf-dist/tex/generic/uniquecounter/uniquecounter.sty" 1650183167 7008 f92eaa0a3872ed622bbf538217cd2ab7 ""
  "/usr/share/texmf-dist/tex/latex/amsfonts/amsfonts.sty" 1650183167 5949 3f3fd50a8cc94c3d4cbf4fc66cd3df1c ""
  "/usr/share/texmf-dist/tex/latex/amsfonts/amssymb.sty" 1650183167 13829 94730e64147574077f8ecfea9bb69af4 ""
  "/usr/share/texmf-dist/tex/latex/amsfonts/umsa.fd" 1650183167 961 6518c6525a34feb5e8250ffa91731cff ""
  "/usr/share/texmf-dist/tex/latex/amsfonts/umsb.fd" 1650183167 961 d02606146ba5601b5645f987c92e6193 ""
  "/usr/share/texmf-dist/tex/latex/amsmath/amsbsy.sty" 1650183167 2222 da905dc1db75412efd2d8f67739f0596 ""
  "/usr/share/texmf-dist/tex/latex/amsmath/amsgen.sty" 1650183167 4173 bc0410bcccdff806d6132d3c1ef35481 ""
  "/usr/share/texmf-dist/tex/latex/amsmath/amsmath.sty" 1650183167 87648 07fbb6e9169e00cb2a2f40b31b2dbf3c ""
  "/usr/share/texmf-dist/tex/latex/amsmath/amsopn.sty" 1650183167 4128 8eea906621b6639f7ba476a472036bbe ""
  "/usr/share/texmf-dist/tex/latex/amsmath/amstext.sty" 1650183167 2444 926f379cc60fcf0c6e3fee2223b4370d ""
  "/usr/share/texmf-dist/tex/latex/atveryend/atveryend.sty" 1650183167 19336 ce7ae9438967282886b3b036cfad1e4d ""
  "/usr/share/texmf-dist/tex/latex/auxhook/auxhook.sty" 1650183167 3935 57aa3c3e203a5c2effb4d2bd2efbc323 ""
  "/usr/share/texmf-dist/tex/latex/base/article.cls" 1650183167 20144 8a7de377ae7a11ee924a7499611f5a9d ""
  "/usr/share/texmf-dist/tex/latex/base/atbegshi-ltx.sty" 1650183167 3034 3bfb87122e6fa8758225c0dd3cbaceba ""
  "/usr/share/texmf-dist/tex/latex/base/atveryend-ltx.sty" 1650183167 2462 754d6b31b2ab5a09bb72c348ace2ec75 ""
  "/usr/share/texmf-dist/tex/latex/base/flafter.sty" 1650183167 9829 9f1b336066fb031d9c0130000f26cb42 ""
  "/usr/share/texmf-dist/tex/latex/base/inputenc.sty" 1650183167 5049 969aec05d5f39c43f8005910498fcf90 ""
  "/usr/share/texmf-dist/tex/latex/base/size10.clo" 1650183167 8448 96f18c76bf608a36ee6fbf021ac1dd32 ""
  "/usr/share/texmf-dist/tex/latex/epstopdf-pkg/epstopdf-base.sty" 1650183167 13886 d1306dcf79a944f6988e688c1785f9ce ""
  "/usr/share/texmf-dist/tex/latex/geometry/geometry.sty" 1650183167 41601 9cf6c5257b1bc7af01a58859749dd37a ""
  "/usr/share/texmf-dist/tex/latex/graphics-cfg/color.cfg" 1650183167 1213 620bba36b25224fa9b7e1ccb4ecb76fd ""
  "/usr/share/texmf-dist/tex/latex/graphics-cfg/graphics.cfg" 1650183167 1224 978390e9c2234eab29404bc21b268d1e ""
  "/usr/share/texmf-dist/tex/latex/graphics-def/pdftex.def" 1650183167 19103 48d29b6e2a64cb717117ef65f107b404 ""
  "/usr/share/texmf-dist/tex/latex/graphics/graphics.sty" 1650183167 18399 7e40f80366dffb22c0e7b70517db5cb4 ""
  "/usr/share/texmf-dist/tex/latex/graphics/graphicx.sty" 1650183167 7996 a8fb260d598dcaf305a7ae7b9c3e3229 ""
  "/usr/share/texmf-dist/tex/latex/graphics/keyval.sty" 1650183167 2671 4de6781a30211fe0ea4c672e4a2a8166 ""
  "/usr/share/texmf-dist/tex/latex/graphics/trig.sty" 1650183167 4009 187ea2dc3194cd5a76cd99a8d7a6c4d0 ""
  "/usr/share/texmf-dist/tex/latex/hycolor/hycolor.sty" 1650183167 17914 4c28a13fc3d975e6e81c9bea1d697276 ""
  "/usr/share/texmf-dist/tex/latex/hyperref/hpdftex.def" 1650183167 49029 7c9e5115b2217efbeb7828ac0d1bf1a0 ""
  "/usr/share/texmf-dist/tex/latex/hyperref/hyperref.sty" 1650183167 220999 6145ea83914c186e178d1d31c50b37df ""
  "/usr/share/texmf-dist/tex/latex/hyperref/nameref.sty" 1650183167 13242 133e617c5eebffdd05e421624022b267 ""
  "/usr/share/texmf-dist/tex/latex/hyperref/pd1enc.def" 1650183167 14132 e8e7e61e51ade521a7238fac8362786c ""
  "/usr/share/texmf-dist/tex/latex/hyperref/puenc.def" 1650183167 117004 ed1c2cc82bb9836e9d59549dd8c33098 ""
  "/usr/share/texmf-dist/tex/latex/kvoptions/kvoptions.sty" 1650183167 22521 d2fceb764a442a2001d257ef11db7618 ""
  "/usr/share/texmf-dist/tex/latex/l3backend/l3backend-pdftex.def" 1650183167 31644 9b75b7ffdb38fbd7bb4502cd6b086a3c ""
  "/usr/share/texmf-dist/tex/latex/latexconfig/epstopdf-sys.cfg" 1650183167 678 4792914a8f45be57bb98413425e4c7af ""
  "/usr/share/texmf-dist/tex/latex/letltxmacro/letltxmacro.sty" 1650183167 5766 13a9e8766c47f30327caf893ece86ac8 ""
  "/usr/share/texmf-dist/tex/latex/listings/listings.cfg" 1650183167 1830 e31effa752c61538383451ae21332364 ""
  "/usr/share/texmf-dist/tex/latex/listings/listings.sty" 1650183167 80964 64e57373f36316e4a09b517cbf1aba2e ""
  "/usr/share/texmf-dist/tex/latex/listings/lstmisc.sty" 1650183167 77022 ee25ce086f4a79d8cf73bac6f94c02a5 ""
  "/usr/share/texmf-dist/tex/latex/mathtools/mathtools.sty" 1650183167 59398 061078e853e620354ba0437103cbd0fe ""
  "/usr/share/texmf-dist/tex/latex/mathtools/mhsetup.sty" 1650183167 5582 a43dedf8e5ec418356f1e9dfe5d29fc3 ""
  "/usr/share/texmf-dist/tex/latex/refcount/refcount.sty" 1650183167 9878 9e94e8fa600d95f9c7731bb21dfb67a4 ""
  "/usr/share/texmf-dist/tex/latex/rerunfilecheck/rerunfilecheck.sty" 1650183167 9715 b051d5b493d9fe5f4bc251462d039e5f ""
  "/usr/share/texmf-dist/tex/latex/setspace/setspace.sty" 1650183167 22913 a27d7908fc6f0385466454a966a316eb ""
  "/usr/share/texmf-dist/tex/latex/tools/calc.sty" 1650183167 10214 00ce62e730d0cfe22b35e8f1c84949c7 ""
  "/usr/share/texmf-dist/tex/latex/url/url.sty" 1650183167 12796 8edb7d69a20b857904dd0ea757c14ec9 ""
  "/usr/share/texmf-dist/tex/latex/xcolor/xcolor.sty" 1650183167 56029 3f7889dab51d620aa43177c391b7b190 ""
  "/usr/share/texmf-dist/web2c/texmf.cnf" 1650183167 39911 2da6c67557ec033436fe5418a70a8a61 ""
  "/var/lib/texmf/fonts/map/pdftex/updmap/pdftex.map" 1662226901 4278762 af3ac1370db81a450c1118eabf1fe718 ""
  "/var/lib/texmf/web2c/pdftex/pdflatex.fmt" 1662226881 2927654 df218ea0076fdf4b1381b62c30e3e65c ""
  "proposal.aux" 1662660367 686 e6bf9f11827e1eae1d85e75b99e0a183 "pdflatex"
  "proposal.out" 0 -1 0 "pdflatex"
  "proposal.tex" 1662660366 3018 ac9c1ca6d1e1729bb30f436626324ece ""
  (generated)
  "proposal.aux"
  "proposal.log"
  "proposal.out"
  "proposal.pdf"
