\relax 
\@writefile{toc}{\contentsline {section}{\numberline {1}}{1}{}\protected@file@percent }
\@writefile{toc}{\contentsline {section}{\numberline {2}Lagrangian in classical mechanics}{2}{}\protected@file@percent }
\@writefile{lof}{\contentsline {figure}{\numberline {1}{\ignorespaces Illustration of setup with chosen coordinates. $x$ and $y$ are the respective positions of the block and wedge.}}{2}{}\protected@file@percent }
\newlabel{fig:BandW}{{1}{2}}
\@writefile{toc}{\contentsline {section}{\numberline {3}}{3}{}\protected@file@percent }
\@writefile{lof}{\contentsline {figure}{\numberline {2}{\ignorespaces Illustration of the two rings (charge Q and radius R) separated with cylindrical coordinates used. The particle of mass m and charge q moves along the z axis.}}{5}{}\protected@file@percent }
\newlabel{fig:rings}{{2}{5}}
\gdef \@abspage@last{6}
