\relax 
\newlabel{prod}{{1}{1}}
\@writefile{lol}{\contentsline {lstlisting}{\numberline {1}Code used for question 1.}{1}{}\protected@file@percent }
\newlabel{partb}{{1}{3}}
\@writefile{lof}{\contentsline {figure}{\numberline {1}{\ignorespaces Error as a function of n for parts a (left) and b (right). Due to the lack of cancellation in the form of equation \textup  {1\hbox {}}, part b is more stable.}}{3}{}\protected@file@percent }
\newlabel{pi}{{2}{4}}
\@writefile{lol}{\contentsline {lstlisting}{\numberline {2}Code used for question 2.}{4}{}\protected@file@percent }
\newlabel{part3}{{2}{5}}
\gdef \@abspage@last{5}
