\relax 
\@writefile{lol}{\contentsline {lstlisting}{\numberline {1}Code used for Question 1}{1}{}\protected@file@percent }
\@writefile{lol}{\contentsline {lstlisting}{\numberline {2}Standard deviations for each temperature.}{2}{}\protected@file@percent }
\@writefile{lof}{\contentsline {figure}{\numberline {1}{\ignorespaces Sample $h_j$ (left) and $g(j)$ curves for each temperaturee}}{2}{}\protected@file@percent }
\gdef \@abspage@last{4}
