c	(299792458*Meter)/Second	299792458
k	(1.3806504*^-23*Joule)/Kelvin	1.3806504e-23
hbar	1.054571628251774*^-34*Joule*Second	1.054571628251774e-34
G	(6.67428*^-11*Meter^3)/(Kilogram*Second^2)	6.67428e-11
mp	1.672621637*^-27*Kilogram	1.672621637e-27
me	9.10938215*^-31*Kilogram	9.10938215e-31
mH	1.6735325509708*^-27*Kilogram	1.6735325509708e-27
Ho	2.2685290209676894*^-18/Second	2.2685290209676894e-18
Tcmb	2.725*Kelvin	2.725
A10	2.85*^-15/Second	2.85e-15
lambda21	0.2110611405413*Meter	0.2110611405413
nu21	1.4204057517700055*^9/Second	1.4204057517700055e9
Tstar	0.06816864328876228*Kelvin	0.06816864328876228
MpcToMetres	30857000000000000000000*Meter	30857000000000000000000
tPlanck	5.391237886570696*^-44*Second	5.391237886570696e-44
lPlanck	1.6162524576777542*^-35*Meter	1.6162524576777542e-35
energycritical	(8.271933943167315*^-10*Joule)/Meter^3	8.271933943167315e-10
energygamma	(4.1717574194068516*^-14*Joule)/Meter^3	4.1717574194068516e-14
electronChargeExact	1.6021766340000001*^-19*Coulomb	1.6021766340000001e-19
ecgs	(4.803204712570264*^-10*Centimeter^(3/2)*Sqrt[Gram])/Second	4.803204712570264e-10
lamba_alpha	1.2156679999999998*^-7*Meter	1.2156679999999998e-7
nu_alpha	2.466071805789081*^15/Second	2.466071805789081e15
A_alpha	6.25*^8/Second	6.25e8
lambdaLL	9.118*^-8*Meter	9.118e-8
nuLL	3.2879190392629965*^15/Second	3.2879190392629965e15