\relax 
\@writefile{lol}{\contentsline {lstlisting}{\numberline {1}"Code used for question 2 data generation. The algorithm used here keeps track of a list of infected cells and at each time step considers their neighbours. The simulation continues when there are no more infected people. This ensures that the simulation stop exactly when a stable state has been reached. This also means that the grid plots only need 2 colors (see Figure 1\hbox {})."}{1}{}\protected@file@percent }
\@writefile{lol}{\contentsline {lstlisting}{\numberline {2}"Code used for question 2 plotting and curve fitting."}{2}{}\protected@file@percent }
\@writefile{lof}{\contentsline {figure}{\numberline {1}{\ignorespaces The final grid state for each of the $p$ values. Since $p_c = 0.5$, $p \in \{0.45, 0.5, 0.55\}$ were chosen.}}{3}{}\protected@file@percent }
\newlabel{grid}{{1}{3}}
\@writefile{lof}{\contentsline {figure}{\numberline {2}{\ignorespaces A linear plot for each of the $\langle x\rangle _t$'s.}}{4}{}\protected@file@percent }
\newlabel{x_lin}{{2}{4}}
\@writefile{lof}{\contentsline {figure}{\numberline {3}{\ignorespaces A log-log plot for each of the $\langle Z\rangle _t$'s with the extracted slopes in the titles.}}{5}{}\protected@file@percent }
\newlabel{z_log}{{3}{5}}
\@writefile{lof}{\contentsline {figure}{\numberline {4}{\ignorespaces A log-log plot for each of the $\langle x\rangle _t$'s with the extracted slopes in the titles.}}{6}{}\protected@file@percent }
\newlabel{x_log}{{4}{6}}
\gdef \@abspage@last{6}
