\relax 
\newlabel{normal}{{}{1}}
\@writefile{lof}{\contentsline {figure}{\numberline {1}{\ignorespaces Sample random walk trajectories for normal(left), cauchy(right), and fat-tailed(bottom) distributed steps.}}{1}{}\protected@file@percent }
\newlabel{char}{{1}{2}}
\newlabel{code}{{1}{4}}
\@writefile{lol}{\contentsline {lstlisting}{\numberline {1}Code used for question 1.}{4}{}\protected@file@percent }
\gdef \@abspage@last{5}
