\relax 
\newlabel{prod}{{1}{1}}
\@writefile{lol}{\contentsline {lstlisting}{\numberline {1}Code used for question 1. The output is on the next page}{1}{}\protected@file@percent }
\gdef \@abspage@last{2}
